{
  "model": {
    "type": "minecraft:model",
    "model": "minecraft:item/template_spawn_egg",
    "tints": [
      {
        "type": "minecraft:constant",
        "value": -16732137
      },
      {
        "type": "minecraft:constant",
        "value": -65315
      }
    ]
  }
}