{
  "model": {
    "type": "minecraft:special",
    "base": "good_nights_sleep:item/wretched_bed",
    "model": {
      "type": "good_nights_sleep:bed",
      "texture": "good_nights_sleep:entity/bed/wretched_bed"
    }
  }
}