{
  "parent": "minecraft:block/stairs",
  "textures": {
    "bottom": "good_nights_sleep:block/blood_planks",
    "side": "good_nights_sleep:block/blood_planks",
    "top": "good_nights_sleep:block/blood_planks"
  }
}