{
  "parent": "minecraft:block/door_top_right_open",
  "render_type": "minecraft:cutout",
  "textures": {
    "bottom": "good_nights_sleep:block/dead_door_bottom",
    "top": "good_nights_sleep:block/dead_door_top"
  }
}