{
  "parent": "minecraft:block/door_bottom_right",
  "render_type": "minecraft:cutout",
  "textures": {
    "bottom": "good_nights_sleep:block/white_door_bottom",
    "top": "good_nights_sleep:block/white_door_top"
  }
}