{
  "carvers": [
    "minecraft:cave",
    "minecraft:cave_extra_underground",
    "minecraft:canyon"
  ],
  "downfall": 0.0,
  "effects": {
    "fog_color": 12638463,
    "grass_color": 16777215,
    "mood_sound": {
      "block_search_extent": 8,
      "offset": 2.0,
      "sound": "minecraft:ambient.cave",
      "tick_delay": 6000
    },
    "music_volume": 1.0,
    "sky_color": 8103167,
    "water_color": 4159204,
    "water_fog_color": 329011
  },
  "features": [
    [
      "good_nights_sleep:sponge_growth"
    ],
    [],
    [],
    [],
    [],
    [],
    [
      "good_nights_sleep:dream_dirt_blob",
      "good_nights_sleep:dream_coal_ore",
      "good_nights_sleep:dream_candy_ore",
      "good_nights_sleep:dream_spectrite_ore",
      "good_nights_sleep:dream_positite_ore",
      "good_nights_sleep:dream_lapis_ore",
      "good_nights_sleep:dream_glowstone_blob"
    ],
    [],
    [],
    [
      "good_nights_sleep:forest_dream_tree",
      "good_nights_sleep:forest_candy_tree",
      "good_nights_sleep:dream_grass_noise",
      "good_nights_sleep:dream_flowers_3"
    ]
  ],
  "has_precipitation": false,
  "spawn_costs": {},
  "spawners": {
    "ambient": [],
    "axolotls": [],
    "creature": [
      {
        "type": "minecraft:sheep",
        "maxCount": 4,
        "minCount": 4,
        "weight": 12
      },
      {
        "type": "minecraft:pig",
        "maxCount": 4,
        "minCount": 4,
        "weight": 10
      },
      {
        "type": "minecraft:chicken",
        "maxCount": 4,
        "minCount": 4,
        "weight": 10
      },
      {
        "type": "minecraft:cow",
        "maxCount": 4,
        "minCount": 4,
        "weight": 8
      }
    ],
    "misc": [],
    "monster": [
      {
        "type": "good_nights_sleep:baby_creeper",
        "maxCount": 4,
        "minCount": 1,
        "weight": 10
      }
    ],
    "underground_water_creature": [],
    "water_ambient": [],
    "water_creature": []
  },
  "temperature": 0.5
}