{
  "carvers": [
    "minecraft:cave",
    "minecraft:cave_extra_underground",
    "minecraft:canyon"
  ],
  "downfall": 0.0,
  "effects": {
    "fog_color": 3344392,
    "mood_sound": {
      "block_search_extent": 8,
      "offset": 2.0,
      "sound": "minecraft:ambient.cave",
      "tick_delay": 6000
    },
    "music_volume": 1.0,
    "sky_color": 9193801,
    "water_color": 4159204,
    "water_fog_color": 329011
  },
  "features": [
    [
      "good_nights_sleep:nether_splash"
    ],
    [],
    [],
    [
      "minecraft:monster_room",
      "minecraft:monster_room_deep"
    ],
    [],
    [],
    [
      "good_nights_sleep:nightmare_dirt_blob",
      "good_nights_sleep:nightmare_gravel_blob",
      "good_nights_sleep:nightmare_coal_ore",
      "good_nights_sleep:nightmare_necrum_ore",
      "good_nights_sleep:nightmare_zitrite_ore",
      "good_nights_sleep:nightmare_iron_ore",
      "good_nights_sleep:nightmare_negatite_ore",
      "good_nights_sleep:nightmare_lapis_ore"
    ],
    [],
    [],
    [
      "good_nights_sleep:forest_dead_tree",
      "good_nights_sleep:forest_blood_tree",
      "good_nights_sleep:scattered_pumpkins",
      "good_nights_sleep:nightmare_grass_5",
      "good_nights_sleep:prickly_nightmare_grass_5",
      "good_nights_sleep:nightmare_flowers_5"
    ]
  ],
  "has_precipitation": false,
  "spawn_costs": {},
  "spawners": {
    "ambient": [],
    "axolotls": [],
    "creature": [],
    "misc": [],
    "monster": [
      {
        "type": "good_nights_sleep:tormenter",
        "maxCount": 4,
        "minCount": 4,
        "weight": 100
      },
      {
        "type": "good_nights_sleep:herobrine",
        "maxCount": 1,
        "minCount": 1,
        "weight": 10
      },
      {
        "type": "minecraft:spider",
        "maxCount": 4,
        "minCount": 4,
        "weight": 100
      },
      {
        "type": "minecraft:zombie",
        "maxCount": 4,
        "minCount": 4,
        "weight": 95
      },
      {
        "type": "minecraft:zombie_villager",
        "maxCount": 1,
        "minCount": 1,
        "weight": 5
      },
      {
        "type": "minecraft:skeleton",
        "maxCount": 4,
        "minCount": 4,
        "weight": 100
      },
      {
        "type": "minecraft:creeper",
        "maxCount": 4,
        "minCount": 4,
        "weight": 100
      },
      {
        "type": "minecraft:slime",
        "maxCount": 4,
        "minCount": 4,
        "weight": 100
      },
      {
        "type": "minecraft:enderman",
        "maxCount": 4,
        "minCount": 1,
        "weight": 10
      },
      {
        "type": "minecraft:witch",
        "maxCount": 1,
        "minCount": 1,
        "weight": 5
      },
      {
        "type": "minecraft:ghast",
        "maxCount": 4,
        "minCount": 4,
        "weight": 30
      },
      {
        "type": "minecraft:zombified_piglin",
        "maxCount": 4,
        "minCount": 4,
        "weight": 30
      },
      {
        "type": "minecraft:magma_cube",
        "maxCount": 4,
        "minCount": 4,
        "weight": 2
      },
      {
        "type": "minecraft:silverfish",
        "maxCount": 4,
        "minCount": 4,
        "weight": 5
      }
    ],
    "underground_water_creature": [],
    "water_ambient": [],
    "water_creature": []
  },
  "temperature": 0.8
}