{
  "criteria": {
    "dream": {
      "conditions": {
        "to": "good_nights_sleep:dream"
      },
      "trigger": "minecraft:changed_dimension"
    },
    "nightmare": {
      "conditions": {
        "to": "good_nights_sleep:nightmare"
      },
      "trigger": "minecraft:changed_dimension"
    }
  },
  "display": {
    "announce_to_chat": false,
    "background": "good_nights_sleep:textures/block/dream_dirt.png",
    "description": {
      "translate": "advancements.good_nights_sleep.root.desc"
    },
    "icon": {
      "count": 1,
      "id": "good_nights_sleep:strange_bed"
    },
    "show_toast": false,
    "title": {
      "translate": "advancements.good_nights_sleep.root.title"
    }
  },
  "requirements": [
    [
      "dream",
      "nightmare"
    ]
  ],
  "sends_telemetry_event": true
}