{
  "variants": {
    "type=bottom": {
      "model": "good_nights_sleep:block/blood_slab"
    },
    "type=double": {
      "model": "good_nights_sleep:block/blood_planks"
    },
    "type=top": {
      "model": "good_nights_sleep:block/blood_slab_top"
    }
  }
}