{
  "variants": {
    "type=bottom": {
      "model": "good_nights_sleep:block/white_slab"
    },
    "type=double": {
      "model": "good_nights_sleep:block/white_planks"
    },
    "type=top": {
      "model": "good_nights_sleep:block/white_slab_top"
    }
  }
}