{
  "variants": {
    "powered=false": {
      "model": "good_nights_sleep:block/white_pressure_plate"
    },
    "powered=true": {
      "model": "good_nights_sleep:block/white_pressure_plate_down"
    }
  }
}