{
  "type": "minecraft:block",
  "pools": [
    {
      "bonus_rolls": 0.0,
      "conditions": [
        {
          "condition": "minecraft:survives_explosion"
        }
      ],
      "entries": [
        {
          "type": "minecraft:item",
          "name": "good_nights_sleep:white_sign"
        }
      ],
      "rolls": 1.0
    }
  ],
  "random_sequence": "good_nights_sleep:blocks/white_wall_sign"
}