{
  "feature": "good_nights_sleep:nightmare_lapis_ore",
  "placement": [
    {
      "type": "minecraft:count",
      "count": 1
    },
    {
      "type": "minecraft:in_square"
    },
    {
      "type": "minecraft:height_range",
      "height": {
        "type": "minecraft:trapezoid",
        "max_inclusive": {
          "absolute": 30
        },
        "min_inclusive": {
          "absolute": 0
        }
      }
    },
    {
      "type": "minecraft:biome"
    }
  ]
}