{
  "type": "minecraft:crafting_shaped",
  "category": "building",
  "group": "wooden_slab",
  "key": {
    "#": "good_nights_sleep:blood_planks"
  },
  "pattern": [
    "###"
  ],
  "result": {
    "count": 6,
    "id": "good_nights_sleep:blood_slab"
  }
}