{
  "type": "minecraft:crafting_shaped",
  "category": "redstone",
  "group": "wooden_trapdoor",
  "key": {
    "#": "good_nights_sleep:dead_planks"
  },
  "pattern": [
    "###",
    "###"
  ],
  "result": {
    "count": 2,
    "id": "good_nights_sleep:dead_trapdoor"
  }
}