{
  "type": "minecraft:crafting_shapeless",
  "category": "redstone",
  "ingredients": [
    "good_nights_sleep:dream_planks"
  ],
  "result": {
    "count": 1,
    "id": "good_nights_sleep:dream_button"
  }
}