{
  "type": "minecraft:crafting_shaped",
  "category": "equipment",
  "key": {
    "#": "minecraft:stick",
    "X": "#good_nights_sleep:storage_blocks/necrum"
  },
  "pattern": [
    "XX",
    " #",
    " #"
  ],
  "result": {
    "count": 1,
    "id": "good_nights_sleep:necrum_hoe"
  }
}