{
  "type": "minecraft:crafting_shaped",
  "category": "equipment",
  "key": {
    "#": "#good_nights_sleep:gems/negatite"
  },
  "pattern": [
    "###",
    "# #",
    "# #"
  ],
  "result": {
    "count": 1,
    "id": "good_nights_sleep:negatite_leggings"
  }
}