{
  "type": "minecraft:crafting_shaped",
  "category": "equipment",
  "key": {
    "#": "minecraft:stick",
    "X": "#good_nights_sleep:gems/positite"
  },
  "pattern": [
    "X",
    "#",
    "#"
  ],
  "result": {
    "count": 1,
    "id": "good_nights_sleep:positite_shovel"
  }
}