{
  "type": "minecraft:smelting",
  "category": "misc",
  "cookingtime": 200,
  "experience": 0.7,
  "ingredient": "#good_nights_sleep:smeltables/spectrite",
  "result": {
    "count": 1,
    "id": "good_nights_sleep:spectrite_ingot"
  }
}