{
  "type": "minecraft:crafting_shaped",
  "category": "building",
  "group": "stripped_bark",
  "key": {
    "#": "good_nights_sleep:stripped_blood_log"
  },
  "pattern": [
    "##",
    "##"
  ],
  "result": {
    "count": 3,
    "id": "good_nights_sleep:stripped_blood_wood"
  }
}