{
  "type": "minecraft:crafting_shaped",
  "category": "misc",
  "group": "hanging_sign",
  "key": {
    "#": "good_nights_sleep:stripped_white_log",
    "X": "minecraft:chain"
  },
  "pattern": [
    "X X",
    "###",
    "###"
  ],
  "result": {
    "count": 6,
    "id": "good_nights_sleep:white_hanging_sign"
  }
}