{
  "parent": "minecraft:recipes/root",
  "criteria": {
    "has_item": {
      "conditions": {
        "items": [
          {
            "items": "#good_nights_sleep:storage_blocks/candy"
          }
        ]
      },
      "trigger": "minecraft:inventory_changed"
    },
    "has_the_recipe": {
      "conditions": {
        "recipe": "good_nights_sleep:hard_candy_block_from_block"
      },
      "trigger": "minecraft:recipe_unlocked"
    }
  },
  "requirements": [
    [
      "has_the_recipe",
      "has_item"
    ]
  ],
  "rewards": {
    "recipes": [
      "good_nights_sleep:hard_candy_block_from_block"
    ]
  }
}