{
  "values": [
    "good_nights_sleep:candy_pickaxe",
    "good_nights_sleep:positite_pickaxe",
    "good_nights_sleep:spectrite_pickaxe",
    "good_nights_sleep:necrum_pickaxe",
    "good_nights_sleep:negatite_pickaxe",
    "good_nights_sleep:zitrite_pickaxe"
  ]
}