{
  "values": [
    "#good_nights_sleep:storage_blocks/spectrite",
    "#good_nights_sleep:storage_blocks/positite",
    "#good_nights_sleep:storage_blocks/zitrite",
    "#good_nights_sleep:storage_blocks/negatite"
  ]
}